TidyTuesday 09/16/2025 – COMP/STAT212 Portfolio
…
The 4 recipies that take the “shortest” amount of time are all sauces/spice mixes. Pumpkin pie spice and 3 ingredient Potsticker dip, do sound like they would take minimal prep time which is why their authors have most likely just marked the time as 1 minute. However teriyaki sauce and sauteed oyster mushrooms in garlic butter sound like they might take more time in reality. Since these are user entered – volunteer data – there doens’t have to be accuracy for reporting, which is most likely why these recipes show up here. It is important to then understand that user error might be a serious bias skewing or limited analysis.

#Cusine with longest average time

Code
cuisines |> 
  group_by(country) |> 
  summarise(Mean_time = mean(total_time)) |> 
  arrange(desc(Mean_time))

# A tibble: 49 × 2
   country             Mean_time
   <chr>                   <dbl>
 1 Amish and Mennonite      849.
 2 Turkish                  353.
 3 Portuguese               353.
 4 Canadian                 271.
 5 German                   270.
 6 Korean                   263.
 7 Belgian                  245 
 8 Russian                  239.
 9 Jamaican                 225.
10 Jewish                   218.
# ℹ 39 more rows
…
